state,Suburb,re_code
Auckland,Arch Hill,1500
Auckland,Auckland Central,113
Auckland,Auckland Central,140
Auckland,Avondale,114
Auckland,Balmoral,115
Auckland,Blockhouse Bay,125
Auckland,Broadway Park,436
Auckland,Central Park,136
Auckland,Cox's Bay,1501
Auckland,Eden Terrace,161
Auckland,Ellerslie,163
Auckland,Epsom,164
Auckland,Freemans Bay,169
Auckland,Glen Innes,174
Auckland,Glendowie,176
Auckland,Grafton,182
Auckland,Greenlane,186
Auckland,Greenwoods Corner,188
Auckland,Grey Lynn,189
Auckland,Herne Bay,198
Auckland,Hillsborough - Auckland City,203
Auckland,Kingsland,215
Auckland,Kohimarama,216
Auckland,Lynfield,224
Auckland,Meadowbank,242
Auckland,Mechanics Bay,244
Auckland,Mission Bay,248
Auckland,Morningside - Auckland City,249
Auckland,Mt Albert,251
Auckland,Mt Eden,252
Auckland,Mt Roskill,253
Auckland,Mt Roskill South,254
Auckland,Mt Wellington,255
Auckland,New Windsor,9111
Auckland,Newmarket,259
Auckland,Newton,260
Auckland,One Tree Hill,272
Auckland,Onehunga,273
Auckland,Orakei,277
Auckland,Oranga,278
Auckland,Otahuhu,285
Auckland,Owairaka,287
Auckland,Panmure,293
Auckland,Parnell,301
Auckland,Penrose,302
Auckland,Point England,438
Auckland,Ponsonby,306
Auckland,Pt Chevalier,308
Auckland,Pt England,309
Auckland,Remuera,316
Auckland,Rosebank,317
Auckland,Royal Oak,321
Auckland,Sandringham,323
Auckland,Southdown,330
Auckland,St Heliers,331
Auckland,St Johns,332
Auckland,St Lukes,333
Auckland,St Marys Bay,334
Auckland,Sylvia Park,347
Auckland,Tamaki,353
Auckland,Te Papapa,357
Auckland,Three Kings,362
Auckland,Waikowhai,378
Auckland,Waiotaiki Bay,437
Auckland,Waterview,385
Auckland,Wesley,1504
Auckland,Western Springs,390
Auckland,Westfield,391
Auckland,Westmere,394
Auckland,Aka Aka,447
Auckland,Ararimu,448
Auckland,Awhitu,449
Auckland,Awhitu Central,450
Auckland,Big Bay,1497
Auckland,Bombay,451
Auckland,Buckland,452
Auckland,Clarks Beach,453
Auckland,Franklin Surrounds,1102
Auckland,Glenbrook,454
Auckland,Glenbrook Beach,455
Auckland,Grahams Beach,456
Auckland,Harrisville,457
Auckland,Helvetia,458
Auckland,Hunua,211
Auckland,Hunua Regional Parkland,459
Auckland,Kaiaua,460
Auckland,Karaka,461
Auckland,Kariotahi,462
Auckland,Kellyville,463
Auckland,Kingseat,464
Auckland,Kohekohe,465
Auckland,Mangatangi,466
Auckland,Mangatawhiri,467
Auckland,Manukau Heads,468
Auckland,Matakawau,470
Auckland,Matakawau Point,471
Auckland,Mauku,472
Auckland,Mercer,473
Auckland,Miranda,474
Auckland,Mission Bush,475
Auckland,Moumoukai,250
Auckland,Onewhero,671
Auckland,Orua Bay,476
Auckland,Otaua,477
Auckland,Paerata,478
Auckland,Paparata,479
Auckland,Paparimu,480
Auckland,Patumahoe,481
Auckland,Pokeno,482
Auckland,Pollok,483
Auckland,Port Waikato,661
Auckland,Pukekawa,1434
Auckland,Pukekohe,484
Auckland,Pukekohe East,1498
Auckland,Pukeoware,485
Auckland,Puni,486
Auckland,Ramarama,487
Auckland,Taurangaruru,488
Auckland,Te Hihi,489
Auckland,Te Kohanga,490
Auckland,Te Toro,1432
Auckland,Tuakau,491
Auckland,Waiau Beach,492
Auckland,Waiau Pa,493
Auckland,Waikaretu,1499
Auckland,Waipipi,495
Auckland,Waiuku,496
Auckland,Whakatiwai,497
Auckland,Whangarata,498
Auckland,Wharekawa,499
Auckland,Whiriwhiri,500
Auckland,Great Barrier Island,1093
Auckland,Great Barrier Island,1503
Auckland,Great Barrier Island,371
Auckland,Kawau Island,1096
Auckland,Other Islands,9103
Auckland,Rakino Island,600
Auckland,Auckland Airport,112
Auckland,Beachlands,119
Auckland,Botany Downs,126
Auckland,Brookby,128
Auckland,Bucklands Beach,131
Auckland,Burswood,132
Auckland,Chapel Downs,441
Auckland,Clendon Park,142
Auckland,Clendon Town,143
Auckland,Clevedon,144
Auckland,Clover Park,145
Auckland,Cockle Bay,146
Auckland,Cumbria Downs,151
Auckland,Dannemora,154
Auckland,East Tamaki,158
Auckland,East Tamaki Heights,159
Auckland,Eastern Beach,160
Auckland,Edgewater,1492
Auckland,Farm Cove,165
Auckland,Favona,166
Auckland,Flat Bush,167
Auckland,Golflands,180
Auckland,Goodwood Heights,181
Auckland,Greenmount,187
Auckland,Half Moon Bay,190
Auckland,Highland Park,200
Auckland,Hill Park,201
Auckland,Homai,1493
Auckland,Howick,206
Auckland,Howick East,207
Auckland,Hunters Corner,209
Auckland,Huntington Park,210
Auckland,Ihumatao,1494
Auckland,Kawakawa Bay,213
Auckland,Lloyd Elsmore Park,1495
Auckland,Mahia Park,444
Auckland,Mangere,226
Auckland,Mangere Bridge,227
Auckland,Mangere East,228
Auckland,Manukau Central,230
Auckland,Manukau City,231
Auckland,Manukau Heights,442
Auckland,Manurewa,232
Auckland,Manurewa East,445
Auckland,Maraetai,233
Auckland,Maraetai Beach,234
Auckland,Mellons Bay,245
Auckland,Middlemore,1496
Auckland,Northpark,265
Auckland,Omana Beach,270
Auckland,Orere,281
Auckland,Orere Point,282
Auckland,Otara,286
Auckland,Pakuranga,289
Auckland,Pakuranga Heights,290
Auckland,Papatoetoe,295
Auckland,Papatoetoe South,296
Auckland,Pine Harbour,443
Auckland,Point View Park,440
Auckland,Puhinui,310
Auckland,Randwick Park,311
Auckland,Shamrock Park,324
Auckland,Shelly Park,325
Auckland,Somerville,328
Auckland,Sunnyhills,339
Auckland,The Gardens,359
Auckland,Totara Heights,369
Auckland,Wattle Downs,386
Auckland,Weymouth,396
Auckland,Whitford,399
Auckland,Wiri,402
Auckland,Akoranga,104
Auckland,Albany,105
Auckland,Bayswater,116
Auckland,Bayview,117
Auckland,Beach Haven,118
Auckland,Belmont - North Shore City,120
Auckland,Birkdale,121
Auckland,Birkenhead,122
Auckland,Brookfield,129
Auckland,Browns Bay,130
Auckland,Bushlands,133
Auckland,Campbells Bay,134
Auckland,Castor Bay,135
Auckland,Chatswood,137
Auckland,Cheltenham,138
Auckland,Chester Park,139
Auckland,Crown Hill,150
Auckland,Cuthill,152
Auckland,Devonport,155
Auckland,Forrest Hill,168
Auckland,Glenfield,177
Auckland,Glenfield North,178
Auckland,Glenvar,179
Auckland,Greenhithe,185
Auckland,Hauraki,192
Auckland,Highbury,199
Auckland,Hillcrest,202
Auckland,Kauri Park,1505
Auckland,Long Bay,222
Auckland,Mairangi Bay,225
Auckland,Marlborough,235
Auckland,Massey Campus,236
Auckland,Meadowood,243
Auckland,Milford,247
Auckland,Murrays Bay,256
Auckland,Narrow Neck,257
Auckland,North Harbour,261
Auckland,Northcote,262
Auckland,Northcote Central,427
Auckland,Northcote Point,263
Auckland,Northcross,264
Auckland,Okura,268
Auckland,Okura Village,269
Auckland,Onepoto - North Shore City,1506
Auckland,Paremoremo,299
Auckland,Pinehill,304
Auckland,Rosedale,318
Auckland,Rothesay Bay,319
Auckland,Stanley Bay,335
Auckland,Stanley Point,336
Auckland,Sunnybrae,1507
Auckland,Sunnynook,340
Auckland,Sunset,342
Auckland,Sunset North,343
Auckland,Sunset North Industrial,344
Auckland,Takapuna,350
Auckland,Takapuna,351
Auckland,Takapuna Industrial,352
Auckland,The Landing,360
Auckland,The Palms,361
Auckland,Torbay,367
Auckland,Torbay Heights,368
Auckland,Totaravale,370
Auckland,Unsworth Heights,372
Auckland,Vauxhall,374
Auckland,Waiake,377
Auckland,Wainoni,380
Auckland,Wairau Park,1508
Auckland,Wairau Valley,383
Auckland,Westlake,393
Auckland,Windsor Park,400
Auckland,Windy Ridge,401
Auckland,Witheford Heights,428
Auckland,Alfriston,107
Auckland,Ardmore,108
Auckland,Conifer Grove,147
Auckland,Drury,157
Auckland,Hingaia,204
Auckland,Opaheke,276
Auckland,Pahurehure,288
Auckland,Papakura,294
Auckland,Ponga,305
Auckland,Red Hill,314
Auckland,Rosehill,1509
Auckland,Runciman,322
Auckland,Takanini,349
Auckland,Ahuroa,1510
Auckland,Albany Heights,106
Auckland,Algies Bay,409
Auckland,Arkles Bay,109
Auckland,Army Bay,110
Auckland,Coatesville,410
Auckland,Dairy Flat,153
Auckland,Gulf Harbour,9105
Auckland,Hatfields Beach,191
Auckland,Helensville,193
Auckland,Hibiscus Coast Surrounds,1095
Auckland,Hobbs Bay,205
Auckland,Hoteo,1511
Auckland,Huapai,411
Auckland,Kaipara Flats,1451
Auckland,Kakanui - Rodney,1512
Auckland,Kaukapakapa,412
Auckland,Kumeu,413
Auckland,Leigh,1097
Auckland,Mahurangi East,414
Auckland,Mahurangi West,1414
Auckland,Makarau,1513
Auckland,Mangakura,1514
Auckland,Manly,229
Auckland,Matakana,1450
Auckland,Matakatia,240
Auckland,Matheson Bay,1449
Auckland,Maygrove,406
Auckland,Muriwai Beach,415
Auckland,Muriwai Valley,416
Auckland,Okoromai Bay,267
Auckland,Omaha,1098
Auckland,Omaha Flats,1515
Auckland,Orewa,283
Auckland,Pakiri,1516
Auckland,Parakai,297
Auckland,Parkhurst,300
Auckland,Pine Valley,303
Auckland,Point Wells,1395
Auckland,Port Albert,1517
Auckland,Puhoi,417
Auckland,Red Beach,313
Auckland,Redvale,315
Auckland,Riverhead,418
Auckland,Riverhead Forest,419
Auckland,Rodney Surrounds,1099
Auckland,Sandspit,1100
Auckland,Scotts Landing,1518
Auckland,Silverdale - Rodney,327
Auckland,Snells Beach,420
Auckland,South Head,1519
Auckland,Stanmore Bay,337
Auckland,Stillwater,338
Auckland,Takatu,1454
Auckland,Tapora,1520
Auckland,Tauhoa,1455
Auckland,Taupaki,421
Auckland,Te Arai,1521
Auckland,Te Arai Point,1522
Auckland,Te Hana,1523
Auckland,Te Henga (Bethells / Waitakere),1427
Auckland,Te Pua,358
Auckland,The Grange,407
Auckland,Ti Point,1453
Auckland,Tindalls Beach,363
Auckland,Tomarata,1524
Auckland,Upper Orewa,373
Auckland,Wade Heads,375
Auckland,Waikoukou Valley,504
Auckland,Waimauku,1378
Auckland,Wainui,1475
Auckland,Waioneke,382
Auckland,Waitakere (RDC),9123
Auckland,Waiteitei,1525
Auckland,Waitoki,422
Auckland,Waiwera,384
Auckland,Waiwhiu,1526
Auckland,Warkworth,423
Auckland,Wayby,1527
Auckland,Wellsford,660
Auckland,Wenderholm,408
Auckland,Whangaparaoa,397
Auckland,Whangaripo,1528
Auckland,Whangateau,1452
Auckland,Wharehine,1529
Auckland,Wharepapa,424
Auckland,Woodhill,425
Auckland,Woodhill - Rodney,503
Auckland,Woodhill Forest,426
Auckland,Arran Bay,9114
Auckland,Blackpool,124
Auckland,Church Bay,439
Auckland,Cowes Bay,149
Auckland,Enclosure Bay,9118
Auckland,Hekerua Bay,9117
Auckland,Kennedy Point,1502
Auckland,Kenney Point,9122
Auckland,Little Oneroa,9112
Auckland,Matiatia Estate,9119
Auckland,Omiha,271
Auckland,Oneroa,274
Auckland,Onetangi,275
Auckland,Orapiu,279
Auckland,Ostend,284
Auckland,Palm Beach,291
Auckland,Rocky Bay,9113
Auckland,Sandy Bay,1393
Auckland,Surfdale,345
Auckland,Te Matuku Bay,9120
Auckland,Te Whau,9121
Auckland,Waiheke Surrounds,1442
Auckland,Waikopou,9115
Auckland,Whakanewha,9116
Auckland,Anawhata,430
Auckland,Cornwallis,148
Auckland,Edmonton,162
Auckland,French Bay,170
Auckland,Glen Eden,171
Auckland,Glen Eden South,172
Auckland,Glen Eden West,173
Auckland,Glendene,175
Auckland,Green Bay,184
Auckland,Harbour View,429
Auckland,Henderson,194
Auckland,Henderson North,195
Auckland,Henderson Valley,196
Auckland,Herald Island,197
Auckland,Hobsonville,501
Auckland,Huia,208
Auckland,Karekare,431
Auckland,Kaurilands,212
Auckland,Kelston,214
Auckland,Konini,217
Auckland,Laingholm,218
Auckland,Lincoln,219
Auckland,Little Huia,221
Auckland,Luckens Point,223
Auckland,Massey,237
Auckland,Massey North,238
Auckland,Massey West,239
Auckland,Mclaren Park,241
Auckland,New Lynn,258
Auckland,Oratia,280
Auckland,Palm Heights,292
Auckland,Parau,298
Auckland,Piha,432
Auckland,Ranui,312
Auckland,Royal Heights,320
Auckland,South Titirangi,329
Auckland,Sunnyvale - Waitakere,341
Auckland,Swanson,346
Auckland,Te Atatu,354
Auckland,Te Atatu Peninsula,355
Auckland,Te Atatu South,356
Auckland,Te Henga (Bethells Beach),433
Auckland,Titirangi,364
Auckland,Titirangi Beach,365
Auckland,Titirangi North,366
Auckland,Waiatarua,434
Auckland,Waima,379
Auckland,Waitakere,435
Auckland,West Harbour,388
Auckland,Western Heights - Waitakere,389
Auckland,Westgate,392
Auckland,Westpark Marina,395
Auckland,Whatipu,398
Auckland,Whenuapai,502
Auckland,Wood Bay,404
Auckland,Woodlands Park,405
Bay of Plenty,Kawerau,791
Bay of Plenty,Kawerau Surrounds,1184
Bay of Plenty,Kutarere,1628
Bay of Plenty,Omaio,1629
Bay of Plenty,Omarumutu,1630
Bay of Plenty,Opotiki,1185
Bay of Plenty,Opotiki Surrounds,1186
Bay of Plenty,Te Kaha,1631
Bay of Plenty,Torere,1632
Bay of Plenty,Waihau Bay,1633
Bay of Plenty,Wairata,1634
Bay of Plenty,Atiamuri East,1635
Bay of Plenty,Broadlands,1636
Bay of Plenty,Fenton Park,768
Bay of Plenty,Fordlands,767
Bay of Plenty,Glenholme,766
Bay of Plenty,Hamurana,1637
Bay of Plenty,Hannahs Bay,765
Bay of Plenty,Hillcrest - Rotorua District,770
Bay of Plenty,Holdens Bay,771
Bay of Plenty,Horohoro,1638
Bay of Plenty,Kaharoa,1639
Bay of Plenty,Kaingaroa North,1640
Bay of Plenty,Kawaha Point,774
Bay of Plenty,Koutu,764
Bay of Plenty,Lake Areas,1181
Bay of Plenty,Lake Okareka,1641
Bay of Plenty,Lake Okataina,1642
Bay of Plenty,Lake Rotoma,1643
Bay of Plenty,Lake Tarawera,1644
Bay of Plenty,Lynmore,776
Bay of Plenty,Mamaku,1645
Bay of Plenty,Mangakakahi,773
Bay of Plenty,Mihi,1646
Bay of Plenty,Mourea,1647
Bay of Plenty,Ngakuru,1648
Bay of Plenty,Ngapuna,775
Bay of Plenty,Ngongotaha,779
Bay of Plenty,Ohinemutu,778
Bay of Plenty,Okere Falls,1649
Bay of Plenty,Oturoa,1650
Bay of Plenty,Owhata,777
Bay of Plenty,Pleasant Heights,780
Bay of Plenty,Pomare,772
Bay of Plenty,Pukehangi,769
Bay of Plenty,Reporoa,1651
Bay of Plenty,Rerewhakaaitu,1652
Bay of Plenty,Rotokawa,1415
Bay of Plenty,Rotorua Central,784
Bay of Plenty,Rotorua Surrounds,1182
Bay of Plenty,Selwyn Heights,786
Bay of Plenty,Springfield,783
Bay of Plenty,Sunnybrook,781
Bay of Plenty,Tihiotonga,788
Bay of Plenty,Tikitere,1424
Bay of Plenty,Utuhina,782
Bay of Plenty,Waikite,1653
Bay of Plenty,Waimangu,1654
Bay of Plenty,Waiotapu,1655
Bay of Plenty,Waiwhero,1656
Bay of Plenty,Western Heights - Rotorua,787
Bay of Plenty,Whakarewarewa,785
Bay of Plenty,Whakarewarewa Forest,1657
Bay of Plenty,Arataki,753
Bay of Plenty,Avenues,1178
Bay of Plenty,Bellevue,754
Bay of Plenty,Bethlehem,739
Bay of Plenty,Brookfield,762
Bay of Plenty,Cambridge Heights,1179
Bay of Plenty,Gate Pa,755
Bay of Plenty,Greerton,751
Bay of Plenty,Hairini,748
Bay of Plenty,Judea,749
Bay of Plenty,Kairua,1658
Bay of Plenty,Matapihi,747
Bay of Plenty,Matua,756
Bay of Plenty,Maungatapu,757
Bay of Plenty,Merivale - Tauranga District,1659
Bay of Plenty,Mt Maunganui,760
Bay of Plenty,Mt Maunganui Surrounds,761
Bay of Plenty,Omanu,742
Bay of Plenty,Otumoetai,738
Bay of Plenty,Papamoa,746
Bay of Plenty,Parkvale,744
Bay of Plenty,Poike,745
Bay of Plenty,Sulphur Point,740
Bay of Plenty,Tauranga Central,759
Bay of Plenty,Tauranga South,758
Bay of Plenty,Tauranga Surrounds,1180
Bay of Plenty,Tauriko,1660
Bay of Plenty,Te Reti,763
Bay of Plenty,Welcome Bay,752
Bay of Plenty,Westridge,1433
Bay of Plenty,Aongatete,1661
Bay of Plenty,Athenree,1686
Bay of Plenty,Kaimai,1662
Bay of Plenty,Katikati,737
Bay of Plenty,Kauri Point,1663
Bay of Plenty,Maketu,1664
Bay of Plenty,Matakana Island,1431
Bay of Plenty,Ngapeke,1665
Bay of Plenty,Ohauiti,743
Bay of Plenty,Omokoroa,9138
Bay of Plenty,Paengaroa,1666
Bay of Plenty,Pongakawa,1667
Bay of Plenty,Pukehina,1668
Bay of Plenty,Pyes Pa,741
Bay of Plenty,Te Puke,735
Bay of Plenty,Te Puna,1669
Bay of Plenty,Waihi Beach,1171
Bay of Plenty,Waimata,1670
Bay of Plenty,Western BOP Surrounds,736
Bay of Plenty,Coastlands,1671
Bay of Plenty,Edgecumbe,1672
Bay of Plenty,Manawahe,1673
Bay of Plenty,Matahina,1674
Bay of Plenty,Matata,1675
Bay of Plenty,Murupara,1676
Bay of Plenty,Ohope,790
Bay of Plenty,Omataroa,1677
Bay of Plenty,Paroa - Whakatane,1678
Bay of Plenty,Poroporo,1679
Bay of Plenty,Taneatua,1680
Bay of Plenty,Te Teko,1681
Bay of Plenty,Te Whaiti,1682
Bay of Plenty,Thornton,1683
Bay of Plenty,Waimana,1684
Bay of Plenty,Waingarara,1685
Bay of Plenty,Whakatane,789
Bay of Plenty,Whakatane Surrounds,1183
Canterbury,Allenton,1945
Canterbury,Ashburton,628
Canterbury,Ashburton Surrounds,1103
Canterbury,Fairton,1946
Canterbury,Hampstead,1947
Canterbury,Hinds,1948
Canterbury,Lauriston,1949
Canterbury,Lismore,1950
Canterbury,Mayfield - Ashburton District,1951
Canterbury,Methven,627
Canterbury,Mt Somers,1952
Canterbury,Netherby,1953
Canterbury,Rakaia,626
Canterbury,Tinwald,1104
Canterbury,Winchmore,1954
Canterbury,Akaroa,625
Canterbury,Banks Peninsula Surrounds,667
Canterbury,Birdlings Flat,624
Canterbury,Cass Bay,594
Canterbury,Charteris Bay,1428
Canterbury,Church Bay,595
Canterbury,Corsair Bay,596
Canterbury,Diamond Harbour,597
Canterbury,Duvauchelle,623
Canterbury,French Farm,1938
Canterbury,Governors Bay,1359
Canterbury,Le Bons Bay,1939
Canterbury,Little Akaloa,622
Canterbury,Little River,621
Canterbury,Lyttelton,598
Canterbury,Lyttelton Harbour,1940
Canterbury,Motukarara,1941
Canterbury,Okains Bay,1942
Canterbury,Pigeon Bay,1943
Canterbury,Port Levy,620
Canterbury,Purau,599
Canterbury,Robinsons Bay,1944
Canterbury,Takamatua,619
Canterbury,Wainui - Banks Peninsula District,381
Canterbury,Addington,573
Canterbury,Aidanfield,1459
Canterbury,Airport,548
Canterbury,Aranui,509
Canterbury,Avoca Valley,1955
Canterbury,Avon Loop,1956
Canterbury,Avondale - Christchurch,526
Canterbury,Avonhead,505
Canterbury,Avonside,527
Canterbury,Balmoral Hill,516
Canterbury,Barrington,1957
Canterbury,Beckenham,568
Canterbury,Belfast,535
Canterbury,Bexley,510
Canterbury,Bishopdale - Christchurch City,536
Canterbury,Bowenvale Valley,1958
Canterbury,Bromley,511
Canterbury,Brookhaven,1396
Canterbury,Brooklands - Christchurch,663
Canterbury,Broomfield,585
Canterbury,Bryndwr,549
Canterbury,Burnside - Christchurch City,550
Canterbury,Burwood,528
Canterbury,Cannon Hill,1959
Canterbury,Casebrook,537
Canterbury,Cashmere Flats,1462
Canterbury,Cashmere Hills,569
Canterbury,Chaneys,670
Canterbury,Christchurch Surrounds,666
Canterbury,City,508
Canterbury,Clifton,517
Canterbury,Clifton Hill,1960
Canterbury,Coutts Island,538
Canterbury,Cracroft,1961
Canterbury,Dallington,530
Canterbury,Edgeware,1962
Canterbury,Fendalton,544
Canterbury,Fendalton North,545
Canterbury,Ferrymead,562
Canterbury,Halswell,576
Canterbury,Harewood,539
Canterbury,Heathcote Valley,563
Canterbury,Hei Hei,586
Canterbury,Hillmorton,577
Canterbury,Hillsborough,570
Canterbury,Hogben,1963
Canterbury,Hoon Hay,578
Canterbury,Horatane,1964
Canterbury,Hornby,587
Canterbury,Huntsbury,518
Canterbury,Hyde Park,506
Canterbury,Ilam,546
Canterbury,Islington,588
Canterbury,Kainga,1467
Canterbury,Kennedys Bush,1461
Canterbury,Ladbrooks,1399
Canterbury,Linwood,512
Canterbury,Mairehau,531
Canterbury,Marshland,540
Canterbury,Masham,589
Canterbury,McCormacks Bay,556
Canterbury,Merivale - Christchurch City,547
Canterbury,Middleton,581
Canterbury,Moncks Bay,557
Canterbury,Moncks Spur,519
Canterbury,Mt Pleasant,520
Canterbury,Murray Aynsley,521
Canterbury,New Brighton,551
Canterbury,North Beach,1965
Canterbury,North Linwood,513
Canterbury,North New Brighton,552
Canterbury,Northcote - Christchurch,1966
Canterbury,Northwood,1458
Canterbury,Oaklands,579
Canterbury,Opawa,564
Canterbury,Ouruhia,1466
Canterbury,Papanui - Christchurch City,541
Canterbury,Paparua,1967
Canterbury,Parklands,529
Canterbury,Phillipstown,514
Canterbury,Queenspark,1968
Canterbury,Redcliffs,558
Canterbury,Redwood - Christchurch City,542
Canterbury,Regents Park,1969
Canterbury,Riccarton,582
Canterbury,Riccarton Park,583
Canterbury,Richmond,532
Canterbury,Richmond Hill,522
Canterbury,Roimata,1970
Canterbury,Russley,507
Canterbury,Scarborough,523
Canterbury,Shirley,533
Canterbury,Sockburn,591
Canterbury,Somerfield,574
Canterbury,South New Brighton,553
Canterbury,Southshore,559
Canterbury,Spencerville,554
Canterbury,Spreydon,575
Canterbury,St Albans,534
Canterbury,St Andrews Hill,524
Canterbury,St Martins,571
Canterbury,Stewarts Gully,1971
Canterbury,Strowan,1972
Canterbury,Styx,543
Canterbury,Sumner,560
Canterbury,Sydenham,566
Canterbury,Taylors Mistake,561
Canterbury,Templeton,592
Canterbury,Thorrington,572
Canterbury,Upper Riccarton,584
Canterbury,Waimairi Beach,555
Canterbury,Wainoni,515
Canterbury,Waltham,567
Canterbury,Westburn,1973
Canterbury,Westhaven,2311
Canterbury,Westlake,580
Canterbury,Westmorland,525
Canterbury,Wigram,593
Canterbury,Windsor,1974
Canterbury,Woolston,565
Canterbury,Yaldhurst,617
Canterbury,Amberley,601
Canterbury,Amberley Beach,615
Canterbury,Balcairn,1371
Canterbury,Cheviot,629
Canterbury,Culverden,631
Canterbury,Gore Bay,612
Canterbury,Hanmer Springs,616
Canterbury,Hawarden,611
Canterbury,Hundalee,1975
Canterbury,Hurunui,1976
Canterbury,Hurunui Surrounds,664
Canterbury,Leithfield,610
Canterbury,Leithfield Beach,609
Canterbury,Lewis Pass,1977
Canterbury,Motunau,1978
Canterbury,Rotherham,1979
Canterbury,Scargill,608
Canterbury,Waiau,607
Canterbury,Waikari,606
Canterbury,Waipara,1372
Canterbury,Albury,1980
Canterbury,Fairlie,605
Canterbury,Lake Tekapo,1106
Canterbury,Mackenzie Surrounds,1107
Canterbury,Mt Cook - Mackenzie District,1981
Canterbury,Twizel,604
Canterbury,Arthurs Pass,1094
Canterbury,Broadfields,1931
Canterbury,Burnham,603
Canterbury,Craigieburn,1932
Canterbury,Darfield,602
Canterbury,Doyleston,614
Canterbury,Dunsandel,633
Canterbury,Glentunnel,647
Canterbury,Greenpark,648
Canterbury,Irwell,649
Canterbury,Kirwee,659
Canterbury,Lansdowne,1430
Canterbury,Leeston,651
Canterbury,Lincoln,669
Canterbury,Prebbleton,1445
Canterbury,Rolleston,652
Canterbury,Sandy Knolls,1933
Canterbury,Selwyn Surrounds,668
Canterbury,Sheffield,653
Canterbury,Southbridge,654
Canterbury,Springfield - Selwyn District,1934
Canterbury,Springston,655
Canterbury,Tai Tapu,9141
Canterbury,Waddington,1935
Canterbury,Weedons,1936
Canterbury,West Melton,656
Canterbury,Windwhistle,1937
Canterbury,Beaconfield,1907
Canterbury,Clandeboye,1908
Canterbury,Fairview,1909
Canterbury,Geraldine,657
Canterbury,Gleniti,1910
Canterbury,Glenwood,1911
Canterbury,Hadlow,1912
Canterbury,Highfield,1913
Canterbury,Kensington - Timaru District,1914
Canterbury,Levels,1915
Canterbury,Marchwiel,1916
Canterbury,Mesopotamia,1917
Canterbury,Orari Bridge,1918
Canterbury,Pareora,1919
Canterbury,Parkside,1920
Canterbury,Pleasant Point,658
Canterbury,Port Timaru,1921
Canterbury,Redruth,1922
Canterbury,Seaview - Timaru District,1923
Canterbury,Smithfield,1924
Canterbury,Te Moana,1925
Canterbury,Temuka,646
Canterbury,Timaru,644
Canterbury,Timaru Surrounds,1105
Canterbury,Waimataitai,1926
Canterbury,Washdyke,1927
Canterbury,Watlington,1928
Canterbury,West End,1929
Canterbury,Winchester,1930
Canterbury,Ashley,641
Canterbury,Clarkville,1895
Canterbury,Cust,640
Canterbury,Glentui,1358
Canterbury,Kaiapoi,643
Canterbury,Kairaki Beach,639
Canterbury,Loburn,638
Canterbury,Ohoka,1409
Canterbury,Okuku,1896
Canterbury,Oxford,637
Canterbury,Pines Beach,634
Canterbury,Rangiora,642
Canterbury,Sefton,1357
Canterbury,Southbrook,636
Canterbury,Swannanoa,635
Canterbury,Tuahiwi,630
Canterbury,Waikuku,632
Canterbury,Waikuku Beach,650
Canterbury,Waimakariri Surrounds,665
Canterbury,West Eyreton,9126
Canterbury,Whitecliffs,1897
Canterbury,Woodend - Waimakariri District,613
Canterbury,Aviemore,1898
Canterbury,Blue Cliffs,1899
Canterbury,Glenavy,1900
Canterbury,Hakataramea Valley,1901
Canterbury,Ikawai,1902
Canterbury,Makikihi,1903
Canterbury,Maungati,1904
Canterbury,St Andrews - Waimate District,1905
Canterbury,Waihaorunga,1906
Canterbury,Waimate,662
Canterbury,Waimate Surrounds,1291
Central North Island,Kakahi,2098
Central North Island,Mangatupoto,2099
Central North Island,Manunui,2100
Central North Island,National Park,2101
Central North Island,Ngapuke,2102
Central North Island,Ohakune,856
Central North Island,Ohura,2103
Central North Island,Owhango,2104
Central North Island,Raetihi,1211
Central North Island,Ruapehu-King Country Surrounds,1212
Central North Island,Taumarunui,1213
Central North Island,Tokirima,2105
Central North Island,Tongariro,2106
Central North Island,Waimiha,2107
Central North Island,Waiouru,1214
Central North Island,Whakapapa,2108
Central North Island,Acacia Bay,1379
Central North Island,Atiamuri West,1560
Central North Island,Five Mile Bay,1561
Central North Island,Hilltop,1562
Central North Island,Iwitahi,1563
Central North Island,Kaingaroa South,1564
Central North Island,Kinloch,9124
Central North Island,Lake Taupo,1565
Central North Island,Mangakino,1436
Central North Island,Maroa,1566
Central North Island,Motutere,1567
Central North Island,Nukuhau,1568
Central North Island,Omori,1569
Central North Island,Opepe,1570
Central North Island,Rangipo,1571
Central North Island,Richmond Heights,1572
Central North Island,Taharua,1573
Central North Island,Tahorakuri,1574
Central North Island,Tauhara,1575
Central North Island,Taupo,1168
Central North Island,Taupo Surrounds,1169
Central North Island,Tihoi,1576
Central North Island,Turangi,1170
Central North Island,Wairakei,1577
Central North Island,Waitahanui,1578
Central North Island,Wharewaka,1579
Central Otago / Lakes,Alexandra,1331
Central Otago / Lakes,Bannockburn,2128
Central Otago / Lakes,Central Otago Surrounds,1332
Central Otago / Lakes,Clyde,1341
Central Otago / Lakes,Cromwell,1342
Central Otago / Lakes,Ettrick,2129
Central Otago / Lakes,Lindis Pass,2130
Central Otago / Lakes,Naseby,1333
Central Otago / Lakes,Nevis,2131
Central Otago / Lakes,Omakau,2132
Central Otago / Lakes,Oturehua,2133
Central Otago / Lakes,Paerau,2134
Central Otago / Lakes,Ranfurly,1334
Central Otago / Lakes,Roxburgh,1335
Central Otago / Lakes,Roxburgh East,2135
Central Otago / Lakes,Albert Town,9140
Central Otago / Lakes,Arrowtown,1336
Central Otago / Lakes,Arthurs Point,1337
Central Otago / Lakes,Cardrona,2136
Central Otago / Lakes,Cattle Flat,2137
Central Otago / Lakes,Cecil Peak,2138
Central Otago / Lakes,Coronet Peak,2139
Central Otago / Lakes,Crown Terrace,2140
Central Otago / Lakes,Fernhill - Queenstown-Lakes District,2141
Central Otago / Lakes,Frankton,1338
Central Otago / Lakes,Gibbston,2142
Central Otago / Lakes,Glendhu,2143
Central Otago / Lakes,Glenorchy,2144
Central Otago / Lakes,Hawea,1343
Central Otago / Lakes,Kelvin Heights,1368
Central Otago / Lakes,Kingston - Queenstown-Lakes District,2154
Central Otago / Lakes,Lake Hawea,2145
Central Otago / Lakes,Lake Hayes,2146
Central Otago / Lakes,Luggate,2147
Central Otago / Lakes,Makarora,2148
Central Otago / Lakes,Queenstown,1339
Central Otago / Lakes,Queenstown,2149
Central Otago / Lakes,Queenstown Surrounds,1340
Central Otago / Lakes,Queenstown Surrounds,2150
Central Otago / Lakes,Queenstown Surrounds,2151
Central Otago / Lakes,Queenstown Surrounds,2152
Central Otago / Lakes,Queenstown Surrounds,2155
Central Otago / Lakes,Queenstown Surrounds,2153
Central Otago / Lakes,Wanaka,1344
Central Otago / Lakes,Wanaka Surrounds,1345
Confidential,Confidential,9999
Coromandel,Hauraki Surrounds,1146
Coromandel,Kaihere,2050
Coromandel,Karangahake,2051
Coromandel,Mangatarata,2052
Coromandel,Ngatea,695
Coromandel,Paeroa,697
Coromandel,Turua,2053
Coromandel,Waihi,696
Coromandel,Waikino,2054
Coromandel,Colville,2055
Coromandel,Cooks Beach,2056
Coromandel,Coroglen,2057
Coromandel,Coromandel,1142
Coromandel,Coromandel Coast,1143
Coromandel,Coromandel Surrounds,1144
Coromandel,East Coast Surrounds,1460
Coromandel,Hahei,2058
Coromandel,Hikuai,2059
Coromandel,Hikutaia,2060
Coromandel,Hot Water Beach,2061
Coromandel,Kaimarama,2062
Coromandel,Kauaeranga,2063
Coromandel,Kennedy Bay,2064
Coromandel,Kopu,2065
Coromandel,Kopuarahi,2066
Coromandel,Kuaotunu,2067
Coromandel,Little Bay,2068
Coromandel,MacKaytown,2069
Coromandel,Manaia - Thames / Coromandel  ,2070
Coromandel,Matarangi,2312
Coromandel,Matatoki,2071
Coromandel,Netherton,2072
Coromandel,Ngarimu Bay,2073
Coromandel,Oamaru Bay,2074
Coromandel,Onemana,2075
Coromandel,Opito Bay - Coromandel,2076
Coromandel,Opoutere,2077
Coromandel,Papaaroha,2078
Coromandel,Pauanui,690
Coromandel,Port Charles,2079
Coromandel,Puriri,2080
Coromandel,Ruamahunga Bay,2081
Coromandel,Sandy Bay (Coromandel),2082
Coromandel,Tairua,693
Coromandel,Tapu,2083
Coromandel,Tararu,2084
Coromandel,Te Kouma,2085
Coromandel,Te Mata,2086
Coromandel,Te Puru,2087
Coromandel,Te Rerenga,2088
Coromandel,Thames,691
Coromandel,Thames Coast,1145
Coromandel,Thames Surrounds,1390
Coromandel,Thornton Bay,2089
Coromandel,Tuateawa,2090
Coromandel,Waiomu,2091
Coromandel,Waitakaruru,2092
Coromandel,Waitete Bay,2093
Coromandel,Whakatete Bay,2094
Coromandel,Whangamata,692
Coromandel,Whangapoua,2095
Coromandel,Whenuakite,2096
Coromandel,Whiritoa,2097
Coromandel,Whitianga,694
Gisborne,Awapuni,796
Gisborne,East Cape,1702
Gisborne,Elgin,801
Gisborne,Gisborne Central,794
Gisborne,Gisborne City Surrounds,792
Gisborne,Gisborne Coastal,1187
Gisborne,Gisborne Country,1188
Gisborne,Hexton,1687
Gisborne,Hicks Bay,1418
Gisborne,Inner Kaiti,1688
Gisborne,Kaiti,793
Gisborne,Makaraka,803
Gisborne,Makorori,1689
Gisborne,Mangapapa,800
Gisborne,Manutuke,1690
Gisborne,Matawai,1691
Gisborne,Matokitoki,1692
Gisborne,Muriwai - Gisborne District,1693
Gisborne,Ngatapa,1694
Gisborne,Okitu,1695
Gisborne,Patutahi,1696
Gisborne,Potaka,1697
Gisborne,Rangitukia,1698
Gisborne,Riverdale,798
Gisborne,Ruatoria,1416
Gisborne,Tamarau,797
Gisborne,Taruheru,799
Gisborne,Te Araroa,1419
Gisborne,Te Hapara,795
Gisborne,Te Karaka,9139
Gisborne,Tikitiki,1417
Gisborne,Tiniroto,1699
Gisborne,Tokomaru Bay,1389
Gisborne,Tolaga Bay,1388
Gisborne,Waimata Valley,9142
Gisborne,Wainui Beach,1391
Gisborne,Whangara,1700
Gisborne,Whatatutu,1701
Gisborne,Whataupoko,802
Hawkes Bay,Central Hawkes Bay Coastal,1193
Hawkes Bay,Central Hawkes Bay Country,1194
Hawkes Bay,Elsthorpe,1735
Hawkes Bay,Otane,1736
Hawkes Bay,Waipawa,1195
Hawkes Bay,Waipukurau,1196
Hawkes Bay,Akina,1703
Hawkes Bay,Bridge Pa,1704
Hawkes Bay,Camberley,1705
Hawkes Bay,Clive,809
Hawkes Bay,Crownthorpe,1706
Hawkes Bay,Dartmoor Valley,1707
Hawkes Bay,Eskdale,1708
Hawkes Bay,Fernhill - Hastings District,1709
Hawkes Bay,Flaxmere,805
Hawkes Bay,Frimley,1710
Hawkes Bay,Hastings,808
Hawkes Bay,Hastings Coastal,810
Hawkes Bay,Hastings Country,1380
Hawkes Bay,Havelock North,806
Hawkes Bay,Hawkes Bay Area,1734
Hawkes Bay,Karamu,1711
Hawkes Bay,Longlands,1712
Hawkes Bay,Mahora,1713
Hawkes Bay,Mangateretere,1714
Hawkes Bay,Maraekakaho,1715
Hawkes Bay,Mayfair,1716
Hawkes Bay,Omahu,1717
Hawkes Bay,Pakipaki,1718
Hawkes Bay,Pakowhai,1719
Hawkes Bay,Parkvale,2310
Hawkes Bay,Poukawa,1720
Hawkes Bay,Puketitiri,1721
Hawkes Bay,Raureka,1722
Hawkes Bay,Rawhiti - Napier,1723
Hawkes Bay,St Leonards - Hastings District,1724
Hawkes Bay,Te Awanga,1725
Hawkes Bay,Te Haroto,1726
Hawkes Bay,Tomoana,1727
Hawkes Bay,Tutira,1728
Hawkes Bay,Twyford,1729
Hawkes Bay,Waimarama,1730
Hawkes Bay,Waiohiki,1731
Hawkes Bay,Waipatiki,9125
Hawkes Bay,Whakatu,1732
Hawkes Bay,Whirinaki,1733
Hawkes Bay,Ahuriri,834
Hawkes Bay,Awatoto,817
Hawkes Bay,Bay View,831
Hawkes Bay,Bluff Hill,819
Hawkes Bay,Greenmeadows,828
Hawkes Bay,Jervoistown,1192
Hawkes Bay,Maraenui,824
Hawkes Bay,Marewa,825
Hawkes Bay,Meeanee,823
Hawkes Bay,Napier Central,818
Hawkes Bay,Napier City Surrounds,816
Hawkes Bay,Napier Hill,814
Hawkes Bay,Napier Port,1737
Hawkes Bay,Napier South,815
Hawkes Bay,Onekawa,811
Hawkes Bay,Pandora,833
Hawkes Bay,Pirimai,829
Hawkes Bay,Poraiti,1738
Hawkes Bay,Tamatea,820
Hawkes Bay,Taradale,821
Hawkes Bay,Te Awa,826
Hawkes Bay,Westshore,830
Hawkes Bay,Kotemaori,1739
Hawkes Bay,Mahia Peninsula,1189
Hawkes Bay,Nuhaka/Morere,1443
Hawkes Bay,Rangiahua,1740
Hawkes Bay,Raupunga,1741
Hawkes Bay,Ruakituri,1742
Hawkes Bay,Tuai,1743
Hawkes Bay,Waihua,1744
Hawkes Bay,Wairoa,804
Hawkes Bay,Wairoa Coastal,1190
Hawkes Bay,Wairoa Country,1191
Hawkes Bay,Whakaki,1745
Manawatu / Wanganui,Foxton,875
Manawatu / Wanganui,Foxton Beach,1420
Manawatu / Wanganui,Heatherlea,1802
Manawatu / Wanganui,Horowhenua Surrounds,1219
Manawatu / Wanganui,Levin,876
Manawatu / Wanganui,Manakau,1803
Manawatu / Wanganui,Muhunoa East,1804
Manawatu / Wanganui,Ohau - Levin,1805
Manawatu / Wanganui,Shannon,1806
Manawatu / Wanganui,Tokomaru,1807
Manawatu / Wanganui,Waitarere,1808
Manawatu / Wanganui,Weraroa,1809
Manawatu / Wanganui,Aorangi,1784
Manawatu / Wanganui,Apiti,1785
Manawatu / Wanganui,Bunnythorpe,1786
Manawatu / Wanganui,Feilding,1217
Manawatu / Wanganui,Halcombe,1787
Manawatu / Wanganui,Himatangi,1413
Manawatu / Wanganui,Himatangi Beach,1422
Manawatu / Wanganui,Hokio,1788
Manawatu / Wanganui,Kairanga,1789
Manawatu / Wanganui,Kauwhata,1790
Manawatu / Wanganui,Kimbolton,1791
Manawatu / Wanganui,Longburn,1792
Manawatu / Wanganui,Maewa,1793
Manawatu / Wanganui,Manawatu Surrounds,1218
Manawatu / Wanganui,Ohakea,1794
Manawatu / Wanganui,Opiki,1795
Manawatu / Wanganui,Pohangina,1796
Manawatu / Wanganui,Rangiwahia,1797
Manawatu / Wanganui,Rongotea,1798
Manawatu / Wanganui,Sanson,1407
Manawatu / Wanganui,Stoney Creek,1799
Manawatu / Wanganui,Waitarere Beach,1800
Manawatu / Wanganui,Waituna West,1801
Manawatu / Wanganui,Aokautere,1773
Manawatu / Wanganui,Ashhurst,1412
Manawatu / Wanganui,CBD,874
Manawatu / Wanganui,Cloverlea,1774
Manawatu / Wanganui,Highbury - Palmerston North City,1775
Manawatu / Wanganui,Hokowhitu,1776
Manawatu / Wanganui,Kelvin Grove,1777
Manawatu / Wanganui,Linton,1778
Manawatu / Wanganui,Linton,1779
Manawatu / Wanganui,Massey University,1780
Manawatu / Wanganui,Milson,1781
Manawatu / Wanganui,Palmerston North Surrounds,873
Manawatu / Wanganui,Terrace End,1782
Manawatu / Wanganui,Tirita,1783
Manawatu / Wanganui,Bulls,1401
Manawatu / Wanganui,Lake Alice,2122
Manawatu / Wanganui,Mangaweka,2123
Manawatu / Wanganui,Marton,871
Manawatu / Wanganui,Ngamahanga,2124
Manawatu / Wanganui,Parewanui,2125
Manawatu / Wanganui,Rangitikei Surrounds,1216
Manawatu / Wanganui,Ratana,2126
Manawatu / Wanganui,Taihape,872
Manawatu / Wanganui,Taoroa Junction,2127
Manawatu / Wanganui,Aramoho,857
Manawatu / Wanganui,Bastia Hill,864
Manawatu / Wanganui,Brunswick,9145
Manawatu / Wanganui,Castlecliff,860
Manawatu / Wanganui,College Estate,2109
Manawatu / Wanganui,Durie Hill,869
Manawatu / Wanganui,Eastown,866
Manawatu / Wanganui,Fordell,9144
Manawatu / Wanganui,Gonville,861
Manawatu / Wanganui,Kai Iwi,2110
Manawatu / Wanganui,Kaitoke - Wanganui,2111
Manawatu / Wanganui,Kakatahi,2112
Manawatu / Wanganui,Koitiata,2113
Manawatu / Wanganui,Mangamahu,2114
Manawatu / Wanganui,Marybank,870
Manawatu / Wanganui,Mosston,863
Manawatu / Wanganui,Okoia,2115
Manawatu / Wanganui,Otamatea,2116
Manawatu / Wanganui,Papaiti,9143
Manawatu / Wanganui,Parikino,2117
Manawatu / Wanganui,Putiki,858
Manawatu / Wanganui,Ranana,2118
Manawatu / Wanganui,Springvale,862
Manawatu / Wanganui,St Johns Hill,868
Manawatu / Wanganui,Tawhero,2119
Manawatu / Wanganui,Wanganui Central,859
Manawatu / Wanganui,Wanganui East,865
Manawatu / Wanganui,Wanganui Surrounds,1215
Manawatu / Wanganui,Westmere - Wanganui,867
Manawatu / Wanganui,Whangaehu,2121
Marlborough,Clarence,2156
Marlborough,Kaikoura,1278
Marlborough,Kaikoura Surrounds,1279
Marlborough,Anakiwa,2157
Marlborough,Blenheim,1273
Marlborough,Burleigh,2158
Marlborough,Curious Cove,2159
Marlborough,Dillons Point,2160
Marlborough,Endeavour Inlet,2161
Marlborough,Fairhall,2162
Marlborough,Farnham,2163
Marlborough,Grovetown,2164
Marlborough,Havelock,1274
Marlborough,Islington - Marlborough,2165
Marlborough,Kenepuru Sound,2166
Marlborough,Lochmara Bay,2167
Marlborough,Mahakipawa,2168
Marlborough,Mahau Sound,2169
Marlborough,Marlborough Country,1275
Marlborough,Marlborough Sounds,1276
Marlborough,Mayfield,2170
Marlborough,Mayfield - Marlborough District,2171
Marlborough,Moenui Bay,2172
Marlborough,Molesworth - Marlborough District,2173
Marlborough,Okiwi Bay,2174
Marlborough,Omaka,2175
Marlborough,Pelorous Sounds,2176
Marlborough,Penzance,2177
Marlborough,Picton,1277
Marlborough,Rai Valley,2178
Marlborough,Rapaura,2179
Marlborough,Rarangi,2180
Marlborough,Redwoodtown,2181
Marlborough,Riverlands,2182
Marlborough,Riversdale - Marlborough District,2183
Marlborough,Roselands,2184
Marlborough,Seddon,2185
Marlborough,Spring Creek,2186
Marlborough,Springlands,2187
Marlborough,Tennyson,2188
Marlborough,Tirimoana,2189
Marlborough,Tuamarina,2190
Marlborough,Waikawa Bay,2191
Marlborough,Wairau,2192
Marlborough,Wairau Valley,9109
Marlborough,Ward,2193
Marlborough,Witherlea,2194
Marlborough,Woodbourne,2195
Nelson & Bays,Annesbrook,1248
Nelson & Bays,Atawhai,1249
Nelson & Bays,Beachville,1250
Nelson & Bays,Bishopdale - Nelson City,1251
Nelson & Bays,Britannia Heights,1252
Nelson & Bays,Brooklands - Nelson,1253
Nelson & Bays,Bryant Range,1842
Nelson & Bays,Enner Glynn,1254
Nelson & Bays,Hira,1402
Nelson & Bays,Kokorua,1843
Nelson & Bays,Maitai Valley,1844
Nelson & Bays,Maitlands,1255
Nelson & Bays,Marybank,1256
Nelson & Bays,Moana,1257
Nelson & Bays,Monaco,1258
Nelson & Bays,Moutere,1845
Nelson & Bays,Nayland,1259
Nelson & Bays,Nelson,1260
Nelson & Bays,Nelson Airport,1846
Nelson & Bays,Nelson East,1847
Nelson & Bays,Nelson South,1261
Nelson & Bays,Nelson Surrounds,1272
Nelson & Bays,Ngawhatu,1848
Nelson & Bays,Port Hills,1849
Nelson & Bays,Port Nelson,1262
Nelson & Bays,Saxton,1850
Nelson & Bays,Stepneyville,1263
Nelson & Bays,Stoke,1264
Nelson & Bays,Tahunanui,1265
Nelson & Bays,The Brook,1267
Nelson & Bays,The Wood,1266
Nelson & Bays,Toi Toi,1268
Nelson & Bays,Tui Glen,1269
Nelson & Bays,Waimeas,1851
Nelson & Bays,Wakapuaka,1852
Nelson & Bays,Wakatu,1270
Nelson & Bays,Washington Valley,1271
Nelson & Bays,Whangamoa,1853
Nelson & Bays,Aniseed Valley,1836
Nelson & Bays,Brightwater,1367
Nelson & Bays,Collingwood,1362
Nelson & Bays,Hope,1366
Nelson & Bays,Kaiteriteri,1837
Nelson & Bays,Motueka,1243
Nelson & Bays,Mt Murchison,1886
Nelson & Bays,Murchison,1386
Nelson & Bays,Nelson Bays Coastal,1244
Nelson & Bays,Nelson Country,1245
Nelson & Bays,Ngatimoti,1838
Nelson & Bays,Parapara,1403
Nelson & Bays,Richmond - Tasman,1246
Nelson & Bays,St Arnaud,1387
Nelson & Bays,Takaka,1839
Nelson & Bays,Tapawera,1840
Nelson & Bays,Tasman Lakes,1247
Nelson & Bays,Upper Moutere,1841
Northland,Awanui,1408
Northland,Cable Bay,2244
Northland,Coopers Beach,2246
Northland,Haruru,2248
Northland,Kaeo,1123
Northland,Kaikohe,1109
Northland,Kaikohe Surrounds,2251
Northland,Kaikohe Surrounds,1110
Northland,Kaikohe Surrounds,2264
Northland,Kaikohe Surrounds,2266
Northland,Kaikohe Surrounds,2269
Northland,Kaikohe Surrounds,2270
Northland,Kaikohe Surrounds,2291
Northland,Kaitaia,1111
Northland,Kaitaia Surrounds,2245
Northland,Kaitaia Surrounds,2249
Northland,Kaitaia Surrounds,2252
Northland,Kaitaia Surrounds,2254
Northland,Kaitaia Surrounds,1112
Northland,Kaitaia Surrounds,2260
Northland,Kaitaia Surrounds,2281
Northland,Kaitaia Surrounds,2282
Northland,Kaitaia Surrounds,2284
Northland,Kaitaia Surrounds,2308
Northland,Kawakawa,1115
Northland,Kawakawa Surrounds,2256
Northland,Kawakawa Surrounds,1116
Northland,Kawakawa Surrounds,2262
Northland,Kerikeri,1117
Northland,Kerikeri Surrounds,2247
Northland,Kerikeri Surrounds,1118
Northland,Kerikeri Surrounds,2274
Northland,Kerikeri Surrounds,2285
Northland,Kerikeri Surrounds,2288
Northland,Kerikeri Surrounds,2289
Northland,Kerikeri Surrounds,2290
Northland,Kerikeri Surrounds,2307
Northland,Kohukohu,2258
Northland,Mangonui,1113
Northland,Mangonui Surrounds,2250
Northland,Mangonui Surrounds,1114
Northland,Mangonui Surrounds,2297
Northland,Mangonui Surrounds,2296
Northland,Mangonui Surrounds,2300
Northland,Mangonui Surrounds,2303
Northland,Mangonui Surrounds,2304
Northland,Moerewa,1426
Northland,North Hokianga,1108
Northland,North Hokianga,2277
Northland,Omapere,2272
Northland,Opononi,2275
Northland,Paihia,1119
Northland,Paihia Surrounds,1120
Northland,Paihia Surrounds,2283
Northland,Paihia Surrounds,2298
Northland,Rawene,2287
Northland,Russell,1121
Northland,Russell Surrounds,2253
Northland,Russell Surrounds,2255
Northland,Russell Surrounds,2271
Northland,Russell Surrounds,2278
Northland,Russell Surrounds,2286
Northland,Russell Surrounds,1122
Northland,Russell Surrounds,2294
Northland,Russell Surrounds,2295
Northland,Russell Surrounds,2301
Northland,South Hokianga,9127
Northland,Taipa,2292
Northland,Waimate North,2305
Northland,Whangaroa/Kaeo Surrounds,1124
Northland,Whatuwhiwhi,2309
Northland,Arapohue,2243
Northland,Dargaville,1134
Northland,Dargaville Surrounds,1135
Northland,Kaiwaka,1136
Northland,Mangawhai,1369
Northland,Mangawhai Heads,1137
Northland,Maungaturoto,1138
Northland,Molesworth - Kaipara District,2265
Northland,Otamatea Surrounds,1139
Northland,Pouto,2280
Northland,Ruawai,1140
Northland,Ruawai Surrounds,1141
Northland,Tangiteroria,2293
Northland,Te Kopuru,2299
Northland,Tinopai,2302
Northland,Topuni,1410
Northland,Waipoua,2306
Northland,Bream Bay,1129
Northland,Glenbervie,677
Northland,Hikurangi,1130
Northland,Horahora,1125
Northland,Kamo,675
Northland,Kauri,2257
Northland,Kensington - Whangarei District,679
Northland,Langs Beach,2259
Northland,Mairtown,1126
Northland,Matapouri,2261
Northland,Maunu,672
Northland,McLeod Bay,2263
Northland,Morningside - Whangarei District,683
Northland,Ngunguru,2267
Northland,Oakleigh,2268
Northland,Oakura Coast,1457
Northland,One Tree Point,2273
Northland,Onerahi,687
Northland,Otaika,680
Northland,Otangarei,678
Northland,Parahaki,673
Northland,Pataua,1476
Northland,Pataua North,9147
Northland,Portland,1479
Northland,Raumanga,676
Northland,Regent,1480
Northland,Riverside,684
Northland,Ruakaka,1481
Northland,Ruatangata,1482
Northland,Sherwood,688
Northland,Springfield - Whangarei District,1483
Northland,Springs Flat,1484
Northland,Tamaterau,1485
Northland,Three Mile Bush,1486
Northland,Tikipunga,674
Northland,Toetoe,1127
Northland,Tutukaka Coast,1456
Northland,Vinetown,1128
Northland,Waiotira,1487
Northland,Waiotu,1488
Northland,Whananaki,1489
Northland,Whangarei Area,1491
Northland,Whangarei Central,681
Northland,Whangarei City Surrounds,682
Northland,Whangarei Heads,2279
Northland,Whangarei Heads,1478
Northland,Whangarei Heads,1131
Northland,Whangarei Surrounds,2276
Northland,Whangarei Surrounds,1477
Northland,Whangarei Surrounds,1133
Northland,Whareora,1490
Northland,Whau Valley,685
Northland,Woodhill - Whangarei,686
Otago,Balclutha,1092
Otago,Balclutha-Clinton Surrounds,1472
Otago,Benhar/Stirling,1982
Otago,Brighton - Clutha District,1983
Otago,Bruce-Kaitangata Surrounds,1473
Otago,Catlins Surrounds,1474
Otago,Chaslands,1984
Otago,Clinton,1471
Otago,Kaitangata,1374
Otago,Kaka Point,1375
Otago,Lawrence,1296
Otago,Lawrence-Tuapeka Surrounds,1470
Otago,Milton,1297
Otago,Owaka,1298
Otago,Papatowai/Pounawea,1985
Otago,South Otago Coastal,1299
Otago,South Otago Country,1300
Otago,Taieri Mouth,9137
Otago,Tapanui,1468
Otago,Waitahuna,1986
Otago,West Otago Surrounds,1469
Otago,Abbotsford,1086
Otago,Allanton,1326
Otago,Andersons Bay,1032
Otago,Aramoana,1383
Otago,Balaclava,1035
Otago,Belleknowes,1037
Otago,Blackhead,1987
Otago,Blanket Bay,1034
Otago,Bradford,1301
Otago,Brighton - Dunedin City,1384
Otago,Broad Bay,1027
Otago,Brockville,1028
Otago,Burkes,1031
Otago,Burnside - Dunedin City,1024
Otago,Calton Hill,1302
Otago,Cape Saunders,1988
Otago,Careys Bay,1023
Otago,Caversham,1030
Otago,Central City,1033
Otago,Chain hills,1306
Otago,Challis,1036
Otago,Clarks Junction,1303
Otago,Clyde Hill,9136
Otago,Colinswood,1029
Otago,Company Bay,1025
Otago,Concord,1026
Otago,Corstorphine,1079
Otago,Dalmore,1066
Otago,Deborah Bay,1989
Otago,Doctors Point,9131
Otago,East Otago Surrounds,1439
Otago,East Taieri,1320
Otago,Fairfield - Dunedin City,1067
Otago,Glenleith,1068
Otago,Glenross,9135
Otago,Green Island,1069
Otago,Halfway Bush,1070
Otago,Harington Point,9134
Otago,Harwood,1382
Otago,Helensburgh,1071
Otago,Henley,1990
Otago,Highcliff,1072
Otago,Hoopers Inlet,1991
Otago,Hyde,1992
Otago,Kaikorai,1073
Otago,Kaikorai Valley,1074
Otago,Karitane,1376
Otago,Kenmure,1075
Otago,Kensington,1076
Otago,Kew,1078
Otago,Kilmog,1993
Otago,Kinmont,1065
Otago,Leith Valley,1080
Otago,Liberton,1081
Otago,Macandrew Bay,1082
Otago,Maia,1083
Otago,Maori Hill,1084
Otago,Maryhill,1085
Otago,Middlemarch,1304
Otago,Mornington,1039
Otago,Mosgiel,1087
Otago,Mt Allan,1994
Otago,Mt Cargill,1995
Otago,Mt Mera,1088
Otago,Musselburgh,1089
Otago,Normanby,1090
Otago,North Dunedin,1091
Otago,North Dunedin Surrounds,1322
Otago,North East Valley,1052
Otago,North Taieri,1435
Otago,Ocean Grove,1050
Otago,Ocean View,9129
Otago,Opoho,1077
Otago,Osborne,9130
Otago,Otago Peninsula,2000
Otago,Outram,1327
Otago,Peninsula Surrounds,1325
Otago,Pine Hill,1040
Otago,Port Chalmers,1041
Otago,Portobello,1042
Otago,Pukehiki,1043
Otago,Purakaunui,9128
Otago,Ravensbourne,1044
Otago,Roseneath,1045
Otago,Roslyn,1046
Otago,Saddle Hill,1047
Otago,Sandymount,1996
Otago,Sawyers Bay,1048
Otago,Shiel Hill,1049
Otago,South Dunedin,1064
Otago,St Clair,1051
Otago,St Clair Park,9132
Otago,St Kilda,1038
Otago,St Leonards - Dunedin City,1053
Otago,Strath Taieri Surrounds,1305
Otago,Sunnyvale - Dunedin,1054
Otago,Sunshine,1055
Otago,Taiaroa Head,1997
Otago,Taieri Plain,1328
Otago,Tainui,1056
Otago,The Cove,1057
Otago,Upper Junction,1058
Otago,Upper Waitati,1998
Otago,Vauxhall,1059
Otago,Waikouaiti,1323
Otago,Waitati,1373
Otago,Wakari,1060
Otago,Waldronville,1061
Otago,Warrington,1324
Otago,Waverley - Dunedin City,1062
Otago,West Harbour Surrounds,1330
Otago,Westwood,9133
Otago,Whare Flat,1999
Otago,Wingatui,1321
Otago,Woodhaugh,1063
Otago,Deborah,2223
Otago,Duntroon,2224
Otago,Enfield,2225
Otago,Five Forks,2226
Otago,Hampden,2227
Otago,Herbert,2228
Otago,Kurow,1425
Otago,Lake Ohau,2229
Otago,Maheno,2230
Otago,Moeraki,2231
Otago,North Otago,2232
Otago,North Otago Surrounds,1295
Otago,Oamaru,1292
Otago,Ohau - Canterbury,2233
Otago,Omarama,1293
Otago,Orana Park,2234
Otago,Otekaieke,2235
Otago,Otematata,2236
Otago,Palmerston,1294
Otago,Pukeuri Junction,2237
Otago,Richmond - Otago,2238
Otago,Waianakarua,2239
Otago,Waihemo,2240
Otago,Waitaki Valley,1463
Otago,Weston,2241
Otago,Windsor - Waitaki District,2242
Pacific Islands,Chatham Island,1464
Pacific Islands,New Caledonia,9108
Pacific Islands,Outer Islands,1448
Pacific Islands,Pitt Island,1465
Pacific Islands,Rarotonga,9106
Pacific Islands,Vanua Levu,1447
Pacific Islands,Vanuatu,9107
Pacific Islands,Viti Levu,1446
Southland,Gore,1346
Southland,Gore Surrounds,1347
Southland,Mataura,1348
Southland,Pukerau,2026
Southland,Waikaka,2027
Southland,Appleby,1361
Southland,Avenal,2028
Southland,Awarua,2029
Southland,Bluff,1349
Southland,Georgetown,2030
Southland,Glengarry,2031
Southland,Grasmere,2032
Southland,Hawthorndale,2033
Southland,Heidelberg,2034
Southland,Invercargill,1350
Southland,Invercargill,2042
Southland,Invercargill,2049
Southland,Invercargill Surrounds,1351
Southland,Kingswell,2035
Southland,Makarewa,2036
Southland,Mill Road,2037
Southland,Myross Bush,2038
Southland,Newfield,2039
Southland,Oreti Beach,2040
Southland,Otatara,2041
Southland,Strathern,2043
Southland,Tisbury,2044
Southland,Tiwai Point,2045
Southland,Waikiwi,2046
Southland,Waimatua,2047
Southland,Windsor - Invercargill City,2048
Southland,Lumsden & Surrounds,2001
Southland,Lumsden & Surrounds,2004
Southland,Lumsden & Surrounds,2008
Southland,Lumsden & Surrounds,1354
Southland,Lumsden & Surrounds,2019
Southland,Lumsden & Surrounds,2023
Southland,Manapouri,2012
Southland,Mossburn,1394
Southland,Nightcaps,2014
Southland,Ohai,2015
Southland,Orepuki,2016
Southland,Otahuti,2017
Southland,Otautau,2018
Southland,Riverton & Surrounds,2003
Southland,Riverton & Surrounds,1356
Southland,Stewart Island,2009
Southland,Stewart Island,1437
Southland,Te Anau,2010
Southland,Te Anau,1355
Southland,Te Anau & Surrounds,2002
Southland,Te Anau & Surrounds,2007
Southland,Te Anau & Surrounds,2013
Southland,Thornbury,2020
Southland,Tuatapere,2022
Southland,Wallacetown,2024
Southland,Winton & Surrounds,2005
Southland,Winton & Surrounds,2011
Southland,Winton & Surrounds,1352
Southland,Woodlands,2025
Southland,Wyndham & Surrounds,2006
Southland,Wyndham & Surrounds,2021
Southland,Wyndham & Surrounds,1353
Taranaki,Bell Block,835
Taranaki,Blagdon,1202
Taranaki,Brooklands - New Plymouth,841
Taranaki,Camp Huinga,1757
Taranaki,Egmont Village,1758
Taranaki,Ferndale,847
Taranaki,Fitzroy - New Plymouth,848
Taranaki,Frankleigh,1759
Taranaki,Frankleigh Park,851
Taranaki,Glen Avon,836
Taranaki,Highlands Park,853
Taranaki,Hillsborough - New Plymouth District,1760
Taranaki,Hurdon,837
Taranaki,Hurworth,1761
Taranaki,Inglewood,1197
Taranaki,Lynmouth,850
Taranaki,Marfell,842
Taranaki,Marsland Hill,1762
Taranaki,Merrilands,845
Taranaki,Mokau,1763
Taranaki,Moturoa,849
Taranaki,New Plymouth,855
Taranaki,New Plymouth Area Surrounds,1199
Taranaki,New Plymouth City Surrounds,839
Taranaki,New Plymouth Coastal,1198
Taranaki,Oakura,1200
Taranaki,Okato,1764
Taranaki,Omata,1765
Taranaki,Pukekura Park,1766
Taranaki,Sentry Hill,1767
Taranaki,Spotswood,844
Taranaki,Strandon,852
Taranaki,Tarata,1768
Taranaki,Tarurutangi,1769
Taranaki,Tikorangi,1770
Taranaki,Tongaporutu,1771
Taranaki,Uruti,1772
Taranaki,Vogeltown - New Plymouth District,838
Taranaki,Waitara,1201
Taranaki,Welbourn,854
Taranaki,Westown,840
Taranaki,Whalers Gate,843
Taranaki,Eltham,1205
Taranaki,Hawera,1206
Taranaki,Manaia - Taranaki,1746
Taranaki,Mangamingi,1747
Taranaki,Manutahi,1748
Taranaki,Normanby,1207
Taranaki,Ohangai,1749
Taranaki,Okaiawa,1750
Taranaki,Opunake,1208
Taranaki,Patea,1209
Taranaki,Rahotu,1751
Taranaki,South Taranaki Surrounds,1210
Taranaki,Waitotara,1752
Taranaki,Waverley - South Taranaki District,1377
Taranaki,Douglas,1753
Taranaki,Huiakama,1754
Taranaki,Midhirst,1755
Taranaki,Stratford,1203
Taranaki,Stratford Surrounds,1204
Taranaki,Tahora,1756
Waikato,Bader,1614
Waikato,Bankwood,1615
Waikato,Beerescourt,718
Waikato,Burbush,1616
Waikato,Callum Brae,1405
Waikato,Chartwell - Hamilton,701
Waikato,Chedworth Park,731
Waikato,Claudelands,733
Waikato,Coleraine,1444
Waikato,Deanwell,729
Waikato,Dinsdale,726
Waikato,Eden Park,1406
Waikato,Enderley,723
Waikato,Fairfield - Hamilton City,710
Waikato,Fairview Downs,715
Waikato,Fitzroy,712
Waikato,Flagstaff,711
Waikato,Forest Lake,713
Waikato,Frankton - Hamilton City,714
Waikato,Glenview,719
Waikato,Grosvenor Park,1423
Waikato,Hamilton Central,725
Waikato,Hamilton East,727
Waikato,Hamilton North,728
Waikato,Hamilton Surrounds,1381
Waikato,Hamilton West,730
Waikato,Harrowfield,1617
Waikato,Hillcrest - Hamilton City,705
Waikato,Horsham Downs,700
Waikato,Huntington,1421
Waikato,Livingstone,702
Waikato,Maeroa,732
Waikato,Melville,706
Waikato,Nawton,708
Waikato,Peacocke,1618
Waikato,Pukete,724
Waikato,Queenwood,721
Waikato,Rototuna,720
Waikato,Ruakura,722
Waikato,Silverdale - Hamilton,717
Waikato,Somerset Heights,9104
Waikato,St Andrews - Hamilton City,703
Waikato,St James Park,1440
Waikato,Tamahere,707
Waikato,Te Rapa,704
Waikato,Temple View,709
Waikato,Thornton Estate,1411
Waikato,Western Heights - Hamilton,1441
Waikato,Whitiora,716
Waikato,Hinuera,1619
Waikato,Kiwitahi,1620
Waikato,Matamata,1152
Waikato,Matamata-Piako Surrounds,1153
Waikato,Morrinsville,1154
Waikato,Okauia,1621
Waikato,Tahuna,1622
Waikato,Te Aroha,1155
Waikato,Te Poi,1623
Waikato,Waharoa,1624
Waikato,Waihou,1625
Waikato,Walton,1626
Waikato,Wardville,1627
Waikato,Arohena,1609
Waikato,Maihihi,1610
Waikato,Ngutunui,1611
Waikato,Oparau,1612
Waikato,Otorohanga,1159
Waikato,Otorohanga Surrounds,1160
Waikato,Waiharakeke,1613
Waikato,Amisfield,1597
Waikato,Aotea - Waikato,1598
Waikato,Kinleith,1599
Waikato,Lichfield,1600
Waikato,Matarawa,1601
Waikato,Papanui - Tokoroa,1602
Waikato,Paraonui,1603
Waikato,Parkdale - Tokoroa,1604
Waikato,Putaruru,1162
Waikato,South Waikato Surrounds,1163
Waikato,Strathmore - Tokoroa,1605
Waikato,Tapapa,1606
Waikato,Te Whetu,1607
Waikato,Tirau,1164
Waikato,Tokoroa,1165
Waikato,Upper Atiamuri,1608
Waikato,Eureka,1580
Waikato,Glen Massey,1581
Waikato,Gordonton,1582
Waikato,Horotiu,1583
Waikato,Huntly,698
Waikato,Kainui,1584
Waikato,Kauri Flat,1585
Waikato,Maramarua,469
Waikato,Meremere,246
Waikato,Ngaruawahia,699
Waikato,Raglan,1150
Waikato,Rangiriri,1586
Waikato,Rotongaro,1587
Waikato,Taupiri,1588
Waikato,Te Akau,1589
Waikato,Te Kauwhata,1590
Waikato,Te Kowhai,1591
Waikato,Te Uku,1592
Waikato,Waerenga,1593
Waikato,Waikato Surrounds,1151
Waikato,Waiterimu,1594
Waikato,Whatawhata,1595
Waikato,Whitikahu,1596
Waikato,Cambridge,734
Waikato,Kihikihi,1530
Waikato,Leamington,1531
Waikato,Ngahinapouri,1532
Waikato,Ohaupo,1533
Waikato,Pirongia,1534
Waikato,Pokuru,1535
Waikato,Puahue,1536
Waikato,Rotongata,1537
Waikato,Rotoorangi,1538
Waikato,Rukuhia,1539
Waikato,Te Awamutu,1157
Waikato,Te Miro,1540
Waikato,Te Pahu,1541
Waikato,Te Rahu,1542
Waikato,Te Rore,1543
Waikato,Tokanui - Waipa District,1544
Waikato,Waipa Surrounds,1158
Waikato,Aria,1545
Waikato,Awakino,1546
Waikato,Benneydale,1547
Waikato,Eight Mile Junction,1548
Waikato,Mahoenui,1549
Waikato,Mapiu,1550
Waikato,Marokopa,1551
Waikato,Pakeho,1552
Waikato,Piopio,1553
Waikato,Piripiri,1554
Waikato,Pureora,1555
Waikato,Taharoa,1556
Waikato,Te Anga,1557
Waikato,Te Kuiti,1166
Waikato,Te Kuiti / Waitomo Surrounds,1167
Waikato,Waipa Valley,1558
Waikato,Waitomo Caves,1559
Wairarapa,Carterton,1237
Wairarapa,Carterton Surrounds,1238
Wairarapa,Gladstone,2200
Wairarapa,Longbush,2201
Wairarapa,Mt Holdsworth,2202
Wairarapa,Te Wharau,2203
Wairarapa,Waingawa,2204
Wairarapa,Bideford,2211
Wairarapa,Blairlogie,2212
Wairarapa,Homebush,2213
Wairarapa,Masterton,1235
Wairarapa,Masterton Surrounds,1236
Wairarapa,Matahiwi,2214
Wairarapa,Mauriceville,2215
Wairarapa,Ngahape,2216
Wairarapa,Opaki,2217
Wairarapa,Riversdale Beach,2218
Wairarapa,Ruamahanga Forks,2219
Wairarapa,Solway,2220
Wairarapa,Tauweru,2221
Wairarapa,Tinui,2222
Wairarapa,Cape Palliser,2196
Wairarapa,Featherston,1239
Wairarapa,Greytown,1240
Wairarapa,Hinakura,2197
Wairarapa,Martinborough,1241
Wairarapa,Pirinoa,2198
Wairarapa,South Wairarapa Surrounds,1242
Wairarapa,Tuturumuri,2199
Wairarapa,Dannevirke,1022
Wairarapa,Eketahuna,2205
Wairarapa,Norsewood,2206
Wairarapa,Pahiatua,1221
Wairarapa,Pongaroa,2207
Wairarapa,Tarakamuku,2208
Wairarapa,Tararua Surrounds,1222
Wairarapa,Tiraumea,2209
Wairarapa,Wimbledon,2210
Wairarapa,Woodville,1223
Wellington,Akatarawa,917
Wellington,Akatarawa Valley,1822
Wellington,Alicetown,946
Wellington,Arakura,960
Wellington,Ava,950
Wellington,Avalon,931
Wellington,Belmont - Lower Hutt City,941
Wellington,Birchville,921
Wellington,Birdwood,1812
Wellington,Blue Mountains,1823
Wellington,Boulcott,935
Wellington,Brown Owl,922
Wellington,Central Hutt,965
Wellington,Clouston Park,1824
Wellington,Craigs Flat,1225
Wellington,Days Bay,938
Wellington,Eastbourne,1228
Wellington,Ebdentown,1825
Wellington,Elderslea,1826
Wellington,Epuni,943
Wellington,Fairfield - Lower Hutt City,1229
Wellington,Glendale,937
Wellington,Gracefield,944
Wellington,Harbour View,929
Wellington,Haywards,933
Wellington,Heretaunga,913
Wellington,Holborn,948
Wellington,Homedale,936
Wellington,Hutt Valley Surrounds,1231
Wellington,Kaitoke,927
Wellington,Kelson,958
Wellington,Kingsley Heights,911
Wellington,Korokoro,954
Wellington,Lowry Bay,963
Wellington,Mahina Bay,1429
Wellington,Maidstone Park,1827
Wellington,Mangaroa,918
Wellington,Manor Park,959
Wellington,Maoribank,925
Wellington,Maungaraki,956
Wellington,Maymorn,924
Wellington,Melling,1813
Wellington,Moera,961
Wellington,Moonshine,1828
Wellington,Muritai,957
Wellington,Naenae,964
Wellington,Normandale,928
Wellington,Park Avenue,1814
Wellington,Parkdale - Upper Hutt,1829
Wellington,Parkway,949
Wellington,Pencarrow,1815
Wellington,Petone,947
Wellington,Pinehaven,914
Wellington,Poets Block,1830
Wellington,Point Howard,945
Wellington,Rimutaka Hill,1831
Wellington,Rona Bay,940
Wellington,Seaview - Lower Hutt City,953
Wellington,Silverstream,926
Wellington,Stokes Valley,952
Wellington,Sunnyview,1832
Wellington,Sunshine Bay - Eastbourne,1816
Wellington,Taita,962
Wellington,Te Marua,919
Wellington,The Plateau,923
Wellington,Timberlea,920
Wellington,Tirohanga,1438
Wellington,Totara Park,910
Wellington,Trentham,915
Wellington,Trentham Military Camp,1833
Wellington,Upper Hutt,912
Wellington,Upper Hutt Surrounds,1227
Wellington,Wainuiomata,934
Wellington,Waiwhetu,932
Wellington,Wallaceville,916
Wellington,Waterloo,951
Wellington,Western Hills,1230
Wellington,Whitemans Valley,1226
Wellington,Wingate,942
Wellington,Woburn,939
Wellington,York Bay,955
Wellington,Kapiti Coast Surrounds,883
Wellington,Maungakotukutuku,1810
Wellington,Otaihanga,887
Wellington,Otaki,885
Wellington,Otaki Beach,879
Wellington,Paekakariki,878
Wellington,Paraparaumu,881
Wellington,Paraparaumu Beach,884
Wellington,Peka Peka,1811
Wellington,Raumati Beach,877
Wellington,Raumati South,880
Wellington,Te Horo,9146
Wellington,Waikanae,886
Wellington,Waikanae Beach,882
Wellington,Aotea - Porirua,9148
Wellington,Ascot Park,908
Wellington,Camborne,894
Wellington,Cannons Creek,890
Wellington,Elsdon,897
Wellington,Golden Gate,892
Wellington,Judgeford,895
Wellington,Karehana Bay,893
Wellington,Mana,888
Wellington,Okowai,898
Wellington,Onepoto - Porirua City,1834
Wellington,Paekakariki Hill,1835
Wellington,Papakowhai,906
Wellington,Paremata,899
Wellington,Pauatahanui,904
Wellington,Plimmerton,903
Wellington,Porirua,905
Wellington,Porirua East,900
Wellington,Pukerua Bay,901
Wellington,Pukerua Bay Surrounds,1224
Wellington,Ranui Heights,902
Wellington,Takapuwahia,907
Wellington,Titahi Bay,896
Wellington,Waitangirua,891
Wellington,Whitby,889
Wellington,Aro Valley,1817
Wellington,Berhampore,991
Wellington,Broadmeadows,1010
Wellington,Brooklyn,985
Wellington,Chartwell,1009
Wellington,Churton Park,1002
Wellington,City/Te Aro,1018
Wellington,Crawford,977
Wellington,Crofton Downs,978
Wellington,Glenside,972
Wellington,Greenacres,1234
Wellington,Grenada North,1011
Wellington,Grenada Village,1021
Wellington,Happy Valley,1014
Wellington,Hataitai,1000
Wellington,Highbury - Wellington City,996
Wellington,Horokiwi,930
Wellington,Houghton Bay,1004
Wellington,Island Bay,1007
Wellington,Johnsonville,1008
Wellington,Kaiwharawhara,993
Wellington,Karaka Bay,1818
Wellington,Karori,1017
Wellington,Kelburn,1019
Wellington,Khandallah,1020
Wellington,Kilbirnie,1016
Wellington,Kingston,995
Wellington,Kowhai Park,990
Wellington,Lambton,974
Wellington,Linden,970
Wellington,Lindenvale,966
Wellington,Lyall Bay,967
Wellington,Makara,989
Wellington,Maupuia,1232
Wellington,Melrose,980
Wellington,Miramar,992
Wellington,Mornington,1006
Wellington,Mt Cook - Wellington City,975
Wellington,Mt Victoria,971
Wellington,Newlands,998
Wellington,Newtown,999
Wellington,Ngaio,1001
Wellington,Ngauranga,976
Wellington,Northland,997
Wellington,Ohariu Valley,994
Wellington,Oriental Bay,1819
Wellington,Owhiro Bay,1013
Wellington,Paparangi,973
Wellington,Rangoon Heights,986
Wellington,Raroa,982
Wellington,Redwood - Wellington City,981
Wellington,Rongotai,1233
Wellington,Roseneath,979
Wellington,Scorching Bay,1820
Wellington,Seatoun,987
Wellington,Seatoun Bays,988
Wellington,Southgate,968
Wellington,Strathmore Park,1015
Wellington,Sundale,1012
Wellington,Tawa,909
Wellington,Te Aro,1821
Wellington,Thorndon,983
Wellington,Vogeltown - Wellington City,1005
Wellington,Wadestown,1003
Wellington,Westhaven,969
Wellington,Wilton,984
West Coast,Buller Gorge,1866
West Coast,Buller Surrounds,1280
West Coast,Cape Foulwind,1867
West Coast,Carters Beach,1281
West Coast,Charleston,1868
West Coast,Hector,1869
West Coast,Inangahua,1282
West Coast,Kahurangi,1870
West Coast,Karamea,1398
West Coast,Punakaiki,1397
West Coast,Reefton,1283
West Coast,Seddonville,1284
West Coast,Waimangaroa,1871
West Coast,Westport,1285
West Coast,Westport Surrounds,1286
West Coast,Ahaura,1854
West Coast,Barrytown,1855
West Coast,Blackball,1856
West Coast,Blaketown,1857
West Coast,Cobden,1858
West Coast,Dobson,1859
West Coast,Greymouth,1287
West Coast,Greymouth Surrounds,1288
West Coast,Karoro,1860
West Coast,Lake Brunner,1861
West Coast,Ngahere,1862
West Coast,Runanga,1863
West Coast,South Beach,1864
West Coast,Totara Flat,1865
West Coast,Bruce Bay,1872
West Coast,Castle Hill,1873
West Coast,Coalbrookdale,1874
West Coast,Dunollie,1875
West Coast,Fox Glacier,1876
West Coast,Franz Josef,1877
West Coast,Haast,1878
West Coast,Harihari,1879
West Coast,Hokitika,1289
West Coast,Ikamatua,1880
West Coast,Jackson Bay,1881
West Coast,Kaiata,1882
West Coast,Kaniere,1883
West Coast,Kumara,1884
West Coast,Moana - Canterbury,1885
West Coast,Omoto Valley,1887
West Coast,Otira,1888
West Coast,Paroa - West Coast,1889
West Coast,Rapahoe,1890
West Coast,Ross,1891
West Coast,Taylorville,1892
West Coast,Westland Area,1894
West Coast,Westland Surrounds,1290
West Coast,Whataroa,1893
